@startuml
rectangle "File visibility" as aux1
rectangle "group files by" as aux2


rectangle "Repository" as 1
rectangle "Branch" as 2
rectangle "Timeline view" as 3
rectangle "Timeline zoom-in/zoom-out" as 4
rectangle "Commit instants" as 5
rectangle "Back" as 6
rectangle "Activity's most recent data" as 7
rectangle "Moment of the last update" as 8
rectangle "Filetree" as 9
rectangle "Category" as 10
rectangle "Churn" as 11
rectangle "Content" as 12
rectangle "Category" as 13
rectangle "Author" as 14
rectangle "Files changed by author" as 15
rectangle "Files history" as 16
rectangle "Churn" as 17
rectangle "Commits altering file" as 18
rectangle "Change magnitude" as 19
rectangle "Pending defects" as 20
rectangle "Issues associated to a file" as 21
rectangle "Issue timeline" as 22
rectangle "Issue view" as 23
rectangle "File statistics" as 24
rectangle "Active members" as 25
rectangle "Contribution by category" as 26
rectangle "Total effort by category" as 27
rectangle "Effort evolution by category" as 28
rectangle "Profile page" as 29
rectangle "Role" as 30
rectangle "Commit list" as 31
rectangle "Commit timeline (with file modifications)" as 32
rectangle "Issue list (open, active, total)" as 33
rectangle "Issue list by instant (open/(active) [advanced]" as 34
rectangle "State in every instant" as 35
rectangle "File tree evolution" as 36
rectangle "Changes in each commit" as 37
rectangle "Auth [advanced]" as 38
rectangle "Deletion of data by admin" as 39
rectangle "Multi-idiom support" as 40

1 -down-> 2
2 -down-> 3
3 -down-> 4
3 -down-> 5
1 -down-> 6
1 -down-> 7
7 -down-> 8
1 -down-> 9
1 -down-> aux2
aux2 -down-> 14
aux2 -down-> 13
aux2 -down-> 17
14 -down-> 15
14 -down-> 16
9 -down-> 15
9 -down-> 16
16 -down-> 18
18 -down-> 19
18 -down-> 20
9 -down-> aux1
aux1 -down-> 10
aux1 -down-> 11
aux1 -down-> 12
9 -down-> 24
9 -down-> 21
21 -down-> 22
21 -down-> 23
1 -down-> 33
1 -down-> 24
1 -down-> 27
27 -down-> 28
1 -down-> 25
25 -down-> 26
25 -down-> 29
25 -down-> 30
25 -down-> 31
31 -down-> 32
16 -down-> 32
1 -down-> 34
1 -down-> 35
35 -down-> 37
35 -down-> 36
9 -down-> 36
1 -down-> 38

@enduml